Chapter 7 Data Wrangling | Introduction to R for Mass Spectrometrists
…
Find average precipitation per year.

## # A tibble: 4 × 2
##    year precipitation_avg
##   <dbl>             <dbl>
## 1  2016              1.32
## 2  2017              1.43
## 3  2018              1.03
## 4  2019              1.37

Convert temperatures to Celsius and add new columns with these to table. Reminder F to C conversion -> (F - 32) * (5/9).

## # A tibble: 48 × 8
##     year month max_temp min_temp precipitation snowfall min_temp_C max_temp_C
##    <dbl> <dbl>    <dbl>    <dbl>         <dbl>    <dbl>      <dbl>      <dbl>
##  1  2016     1     46.8     19.3          0.39      7.4     -7.06        8.22
##  2  2016     2     49.8     22.5          0.47     14.7     -5.28        9.89
##  3  2016     3     53.2     25.7          1.47     19       -3.5        11.8 
##  4  2016     4     55.5     33.2          2.13     19.2      0.667      13.1 
##  5  2016     5     64.6     39.6          1.95      0.7      4.22       18.1 
##  6  2016     6     82.4     54.7          4.64      0       12.6        28   
##  7  2016     7     87       57.4          2.08      0       14.1        30.6 
##  8  2016     8     83.8     53.9          1.18      0       12.2        28.8 
##  9  2016     9     79.8     48.5          0.12      0        9.17       26.6 
## 10  2016    10     74.1     40.6          0.16      0        4.78       23.4 
## # … with 38 more rows
…
