Chapter 7 Data Wrangling | Learning R for Mass Spectrometry
…
Figure 7.6:  Pivoting longer from wide data.

tbl_met %>%
  separate(Culture, c("culture", "dose_mg"), sep = " dose:") %>%
  mutate(dose_mg = str_remove(dose_mg, "mg")) %>%
  mutate(dose_mg = as.numeric(dose_mg)) %>%
  pivot_longer(cols = 3:22, names_to = "metabolite_time", values_to = "abundance")

## # A tibble: 180 × 4
##    culture dose_mg metabolite_time      abundance
##    <chr>     <dbl> <chr>                    <dbl>
##  1 e coli        0 glutamate_Time_0min     191666
##  2 e coli        0 glutamate_Time_10min   2082823
##  3 e coli        0 glutamate_Time_20min   1796910
##  4 e coli        0 glutamate_Time_50min    846402
##  5 e coli        0 glutamate_Time_2hr     1782879
##  6 e coli        0 lysine_Time_0min          1418
##  7 e coli        0 lysine_Time_10min         2004
##  8 e coli        0 lysine_Time_20min         1498
##  9 e coli        0 lysine_Time_50min         1356
## 10 e coli        0 lysine_Time_2hr            962
## # … with 170 more rows

Another happy table…but STILL has multiple data encoded in a single column!

tbl_met %>%
  separate(Culture, c("culture", "dose_mg"), sep = " dose:") %>%
  mutate(dose_mg = str_remove(dose_mg, "mg")) %>%
  mutate(dose_mg = as.numeric(dose_mg)) %>%
  pivot_longer(cols = 3:22, names_to = "metabolite_time", values_to = "abundance") %>%
  separate(metabolite_time, c("metabolite", "time_min"), sep="_")

## # A tibble: 180 × 5
##    culture dose_mg metabolite time_min abundance
##    <chr>     <dbl> <chr>      <chr>        <dbl>
##  1 e coli        0 glutamate  Time        191666
##  2 e coli        0 glutamate  Time       2082823
##  3 e coli        0 glutamate  Time       1796910
##  4 e coli        0 glutamate  Time        846402
##  5 e coli        0 glutamate  Time       1782879
##  6 e coli        0 lysine     Time          1418
##  7 e coli        0 lysine     Time          2004
##  8 e coli        0 lysine     Time          1498
##  9 e coli        0 lysine     Time          1356
## 10 e coli        0 lysine     Time           962
## # … with 170 more rows

tbl_met %>%
  separate(Culture, c("culture", "dose_mg"), sep = " dose:") %>%
  mutate(dose_mg = str_remove(dose_mg, "mg")) %>%
  mutate(dose_mg = as.numeric(dose_mg)) %>%
  pivot_longer(cols = 3:22, names_to = "metabolite_time", values_to = "abundance") %>%
  separate(metabolite_time, c("metabolite", "time_min"), sep="_", convert = TRUE)

## # A tibble: 180 × 5
##    culture dose_mg metabolite time_min abundance
##    <chr>     <dbl> <chr>      <chr>        <dbl>
##  1 e coli        0 glutamate  Time        191666
##  2 e coli        0 glutamate  Time       2082823
##  3 e coli        0 glutamate  Time       1796910
##  4 e coli        0 glutamate  Time        846402
##  5 e coli        0 glutamate  Time       1782879
##  6 e coli        0 lysine     Time          1418
##  7 e coli        0 lysine     Time          2004
##  8 e coli        0 lysine     Time          1498
##  9 e coli        0 lysine     Time          1356
## 10 e coli        0 lysine     Time           962
## # … with 170 more rows
…
tbl_met %>%
  separate(Culture, c("culture", "dose_mg"), sep = " dose:") %>%
  mutate(dose_mg = str_remove(dose_mg, "mg")) %>%
  mutate(dose_mg = as.numeric(dose_mg)) %>%
  pivot_longer(cols = 3:22, names_to = "metabolite_time", values_to = "abundance") %>%
  separate(metabolite_time, c("metabolite", "time_min"), sep="_Time_") %>%
  mutate(
    time_min = case_when(
      grepl("min", time_min, ignore.case = TRUE) ~ as.numeric(gsub("min", "", time_min)),
      grepl("hr", time_min, ignore.case = TRUE) ~ as.numeric(gsub("hr", "", time_min)) * 60
    )
  )

## # A tibble: 180 × 5
##    culture dose_mg metabolite time_min abundance
##    <chr>     <dbl> <chr>         <dbl>     <dbl>
##  1 e coli        0 glutamate         0    191666
##  2 e coli        0 glutamate        10   2082823
##  3 e coli        0 glutamate        20   1796910
##  4 e coli        0 glutamate        50    846402
##  5 e coli        0 glutamate       120   1782879
##  6 e coli        0 lysine            0      1418
##  7 e coli        0 lysine           10      2004
##  8 e coli        0 lysine           20      1498
##  9 e coli        0 lysine           50      1356
## 10 e coli        0 lysine          120       962
## # … with 170 more rows
…
tbl_met_tidy

## # A tibble: 180 × 5
##    culture dose_mg metabolite time_min abundance
##    <chr>     <dbl> <chr>         <dbl>     <dbl>
##  1 e coli        0 glutamate         0    191666
##  2 e coli        0 glutamate        10   2082823
##  3 e coli        0 glutamate        20   1796910
##  4 e coli        0 glutamate        50    846402
##  5 e coli        0 glutamate       120   1782879
##  6 e coli        0 lysine            0      1418
##  7 e coli        0 lysine           10      2004
##  8 e coli        0 lysine           20      1498
##  9 e coli        0 lysine           50      1356
## 10 e coli        0 lysine          120       962
## # … with 170 more rows
…
no_pipe_tbl_met <- pivot_longer(no_pipe_tbl_met, cols = 3:22, names_to = "metabolite_time", values_to = "abundance")

no_pipe_tbl_met <- separate(no_pipe_tbl_met, metabolite_time, c("metabolite", "time_min"), sep="_Time_")

no_pipe_tbl_met_tidy <-  mutate(no_pipe_tbl_met,
    time_min = case_when(
      grepl("min", time_min, ignore.case = TRUE) ~ as.numeric(gsub("min", "", time_min)),
      grepl("hr", time_min, ignore.case = TRUE) ~ as.numeric(gsub("hr", "", time_min)) * 60
    )
  )

no_pipe_tbl_met_tidy

## # A tibble: 180 × 5
##    culture dose_mg metabolite time_min abundance
##    <chr>     <dbl> <chr>         <dbl>     <dbl>
##  1 e coli        0 glutamate         0    191666
##  2 e coli        0 glutamate        10   2082823
##  3 e coli        0 glutamate        20   1796910
##  4 e coli        0 glutamate        50    846402
##  5 e coli        0 glutamate       120   1782879
##  6 e coli        0 lysine            0      1418
##  7 e coli        0 lysine           10      2004
##  8 e coli        0 lysine           20      1498
##  9 e coli        0 lysine           50      1356
## 10 e coli        0 lysine          120       962
## # … with 170 more rows
…
Pivot the table from wide to long creating metabolite, time_hr & abundance columns.

## # A tibble: 90 × 6
##    culture dose_mg_ml User                metabolite time_hr abundance
##    <chr>        <dbl> <chr>               <chr>      <chr>       <dbl>
##  1 e coli           0 Mass Spectrometrist glutamate  0hr        191666
##  2 e coli           0 Mass Spectrometrist glutamate  24hr      2082823
##  3 e coli           0 Mass Spectrometrist glutamate  2day      1796910
##  4 e coli           0 Mass Spectrometrist glutamate  3day       846402
##  5 e coli           0 Mass Spectrometrist glutamate  5day      1782879
##  6 e coli           0 Mass Spectrometrist lysine     0hr          1418
##  7 e coli           0 Mass Spectrometrist lysine     24hr         2004
##  8 e coli           0 Mass Spectrometrist lysine     2day         1498
##  9 e coli           0 Mass Spectrometrist lysine     3day         1356
## 10 e coli           0 Mass Spectrometrist lysine     5day          962
## # … with 80 more rows

Make sure time_hr contains just hours and not a mixture of days and hours.

## # A tibble: 90 × 6
##    culture dose_mg_ml User                metabolite time_hr abundance
##    <chr>        <dbl> <chr>               <chr>        <dbl>     <dbl>
##  1 e coli           0 Mass Spectrometrist glutamate        0    191666
##  2 e coli           0 Mass Spectrometrist glutamate       24   2082823
##  3 e coli           0 Mass Spectrometrist glutamate       48   1796910
##  4 e coli           0 Mass Spectrometrist glutamate       72    846402
##  5 e coli           0 Mass Spectrometrist glutamate      120   1782879
##  6 e coli           0 Mass Spectrometrist lysine           0      1418
##  7 e coli           0 Mass Spectrometrist lysine          24      2004
##  8 e coli           0 Mass Spectrometrist lysine          48      1498
##  9 e coli           0 Mass Spectrometrist lysine          72      1356
## 10 e coli           0 Mass Spectrometrist lysine         120       962
## # … with 80 more rows

Remove the User column. See cheatsheet here: data-wrangling-cheatsheet or consult internet.

## # A tibble: 90 × 5
##    culture dose_mg_ml metabolite time_hr abundance
##    <chr>        <dbl> <chr>        <dbl>     <dbl>
##  1 e coli           0 glutamate        0    191666
##  2 e coli           0 glutamate       24   2082823
##  3 e coli           0 glutamate       48   1796910
##  4 e coli           0 glutamate       72    846402
##  5 e coli           0 glutamate      120   1782879
##  6 e coli           0 lysine           0      1418
##  7 e coli           0 lysine          24      2004
##  8 e coli           0 lysine          48      1498
##  9 e coli           0 lysine          72      1356
## 10 e coli           0 lysine         120       962
## # … with 80 more rows
