Chapter 10 Mass Spectrometry | Learning R for Mass Spectrometry
…
ms_dat

## Mass Spectrometry file handle.
## Filename:  QC_20230214_QE_Hela200ng_Aur2hr.mzML 
## Number of scans:  12853

Extract out a specific spectrum.

library(tidyverse)

tbl_spec <- peaks(ms_dat, 1234) %>% as_tibble()

tbl_spec

## # A tibble: 732 × 2
##       mz intensity
##    <dbl>     <dbl>
##  1  375.    33308.
##  2  375.   915292.
##  3  376.    23732.
##  4  376.   159740.
##  5  376.    25760.
##  6  376.   184179.
##  7  377.    30452.
##  8  377.    69894.
##  9  377.    15017.
## 10  377.   822320.
## # … with 722 more rows
…
