More Exercises | Learning R for Mass Spectrometry
…
## [1] 1257732

you’d expect to have the same number of values are there is rows

## [1] 1257732

3.2 How many unique values of the data from “FileName” are there? What are these values and what do they correspond to?

##  [1] "JD_06232014_sample1-A.raw" "JD_06232014_sample1_B.raw" "JD_06232014_sample1_C.raw" "JD_06232014_sample2_A.raw"
##  [5] "JD_06232014_sample2_B.raw" "JD_06232014_sample2_C.raw" "JD_06232014_sample3_A.raw" "JD_06232014_sample3_B.raw"
##  [9] "JD_06232014_sample3_C.raw" "JD_06232014_sample4-A.raw" "JD_06232014_sample4_B.raw" "JD_06232014_sample4_C.raw"

3.3 Using data frame indexing syntax, subset the data to rows for the protein “sp|P33399|LHP1_YEAST”

## # A tibble: 288 × 16
##    ProteinName Pepti…¹ Pepti…² Precu…³ Precu…⁴ Fragm…⁵ Produ…⁶ Produ…⁷ Isoto…⁸ Condi…⁹ BioRe…˟ FileN…˟ Area  Stand…˟ Trunc…˟
##    <chr>       <chr>   <chr>     <dbl>   <dbl> <chr>     <dbl>   <dbl> <chr>   <chr>     <dbl> <chr>   <chr> <lgl>   <lgl>  
##  1 sp|P33399|… NDGWVP… NDGWVP…       2    846. precur…       2    846. light   Condit…       1 JD_062… 1397… NA      FALSE  
##  2 sp|P33399|… NDGWVP… NDGWVP…       2    846. precur…       2    846. light   Condit…       2 JD_062… 1281… NA      FALSE  
##  3 sp|P33399|… NDGWVP… NDGWVP…       2    846. precur…       2    846. light   Condit…       3 JD_062… 1019… NA      FALSE  
##  4 sp|P33399|… NDGWVP… NDGWVP…       2    846. precur…       2    846. light   Condit…       4 JD_062… 1104… NA      FALSE  
##  5 sp|P33399|… NDGWVP… NDGWVP…       2    846. precur…       2    846. light   Condit…       5 JD_062… 1302… NA      FALSE  
##  6 sp|P33399|… NDGWVP… NDGWVP…       2    846. precur…       2    846. light   Condit…       6 JD_062… 1126… NA      FALSE  
##  7 sp|P33399|… NDGWVP… NDGWVP…       2    846. precur…       2    846. light   Condit…       7 JD_062… 1094… NA      FALSE  
##  8 sp|P33399|… NDGWVP… NDGWVP…       2    846. precur…       2    846. light   Condit…       8 JD_062… 1457… NA      FALSE  
##  9 sp|P33399|… NDGWVP… NDGWVP…       2    846. precur…       2    846. light   Condit…       9 JD_062… 1213… NA      FALSE  
## 10 sp|P33399|… NDGWVP… NDGWVP…       2    846. precur…       2    846. light   Condit…      10 JD_062… 1170… NA      FALSE  
## # … with 278 more rows, 1 more variable: DetectionQValue <chr>, and abbreviated variable names ¹​PeptideSequence,
## #   ²​PeptideModifiedSequence, ³​PrecursorCharge, ⁴​PrecursorMz, ⁵​FragmentIon, ⁶​ProductCharge, ⁷​ProductMz, ⁸​IsotopeLabelType,
## #   ⁹​Condition, ˟​BioReplicate, ˟​FileName, ˟​StandardType, ˟​Truncated
…
