Chapter 5 R Objects | Learning R for Mass Spectrometry
…
5.6 Tibbles

A tibble is a modern data frame in R programming language. Tibble is a part of tidyverse package that provides an efficient and user-friendly way to work with data frames. Tibbles are similar to data frames, but they have better printing capabilities, and they are designed to never alter your data.

Tibbles are created using the tibble() function. You can create a tibble by passing vectors, lists, or data frames to the tibble() function. Once created, you can manipulate the tibble using the dplyr package.

library(tidyverse)

tbl_let <- tibble(
  let = LETTERS,
  pos = 1:length(LETTERS)
)

## # A tibble: 26 × 2
##    let     pos
##    <chr> <int>
##  1 A         1
##  2 B         2
##  3 C         3
##  4 D         4
##  5 E         5
##  6 F         6
##  7 G         7
##  8 H         8
##  9 I         9
## 10 J        10
## # … with 16 more rows
## # ℹ Use `print(n = ...)` to see more rows
…
